{
	"version": 3,
	"software": {
		"animate": "C:\\Program Files\\Adobe\\Adobe Animate 2020\\Animate.exe",
		"python": "C:\\Program Files\\Python-2.7.17\\python.exe",
		"sonar": "sonar.cmd"
	},
	"game": {
		"folder": "E:\\wot\\cis",
		"version": "1.11.0.0"
	},
	"info": {
		"id": "battlehits",
		"author": "poliroid",
		"name": "Battle Hits",
		"description": "Explore received and given hits by your vehicle in battle",
		"version": "1.6.1"
	}
}